Lab 1 - Prime Number Detector/PrimeDetector.vcd
$date
  Sun Mar 06 15:41:24 2022
$end
$version
  GHDL v0
$end
$timescale
  1 fs
$end
$var reg 4 ! sw_tb[3:0] $end
$var reg 1 " prime_tb $end
$scope module dut $end
$var reg 4 # sw[3:0] $end
$var reg 1 $ prime $end
$upscope $end
$enddefinitions $end
#0
b0000 !
0"
b0000 #
0$
#10000000
b0001 !
b0001 #
#20000000
b0010 !
1"
b0010 #
1$
#30000000
b0011 !
b0011 #
#40000000
b0100 !
0"
b0100 #
0$
#50000000
b0101 !
1"
b0101 #
1$
#60000000
b0110 !
0"
b0110 #
0$
#70000000
b0111 !
1"
b0111 #
1$
#80000000
b1000 !
0"
b1000 #
0$
#90000000
b1001 !
b1001 #
#100000000
b1010 !
b1010 #
#110000000
b1011 !
1"
b1011 #
1$
#120000000
b1100 !
0"
b1100 #
0$
#130000000
b1101 !
1"
b1101 #
1$
#140000000
b1110 !
0"
b1110 #
0$
#150000000
b1111 !
b1111 #
#160000000
b0000 !
b0000 #
