Lab 2 - Seven Segment Display/SevenSegDecoder.vcd
$date
  Sat Mar 19 13:17:43 2022
$end
$version
  GHDL v0
$end
$timescale
  1 fs
$end
$var reg 4 ! sw_tb[3:0] $end
$var reg 1 " prime_tb $end
$var reg 7 # sevenseg_tb[6:0] $end
$scope module dut $end
$var reg 4 $ sw[3:0] $end
$var reg 1 % prime $end
$var reg 7 & sevenseg[6:0] $end
$upscope $end
$enddefinitions $end
#0
b0000 !
0"
b1111110 #
b0000 $
0%
b1111110 &
#10000000
b0001 !
b0110000 #
b0001 $
b0110000 &
#20000000
b0010 !
1"
b1101101 #
b0010 $
1%
b1101101 &
#30000000
b0011 !
b1111001 #
b0011 $
b1111001 &
#40000000
b0100 !
0"
b0110011 #
b0100 $
0%
b0110011 &
#50000000
b0101 !
1"
b1011011 #
b0101 $
1%
b1011011 &
#60000000
b0110 !
0"
b1011111 #
b0110 $
0%
b1011111 &
#70000000
b0111 !
1"
b1110000 #
b0111 $
1%
b1110000 &
#80000000
b1000 !
0"
b1111111 #
b1000 $
0%
b1111111 &
#90000000
b1001 !
b1111011 #
b1001 $
b1111011 &
#100000000
b1010 !
b1110111 #
b1010 $
b1110111 &
#110000000
b1011 !
1"
b0011111 #
b1011 $
1%
b0011111 &
#120000000
b1100 !
0"
b0001101 #
b1100 $
0%
b0001101 &
#130000000
b1101 !
1"
b0111101 #
b1101 $
1%
b0111101 &
#140000000
b1110 !
0"
b1001111 #
b1110 $
0%
b1001111 &
#150000000
b1111 !
b1000111 #
b1111 $
b1000111 &
#160000000
b0000 !
b1111110 #
b0000 $
b1111110 &
